v 20130925 2
C 40000 40100 0 0 0 title-B.sym
C 45200 46800 1 0 0 7_segments_3_digits.sym
{
T 45200 51100 5 10 0 0 0 0 1
device=BL-T52A-31
T 45200 50300 5 10 0 0 0 0 1
footprint=display_7_segments
T 45300 50000 5 10 1 1 0 0 1
refdes=D1
}
T 45400 49600 9 10 1 0 0 0 1
ANODO COMUM
C 51200 47100 1 0 0 BC557-1.sym
{
T 52200 47900 5 8 0 0 0 0 1
device=BC557
T 52200 47700 5 10 1 1 0 0 1
refdes=Q1
T 52200 47600 5 8 0 0 0 0 1
value=BC557
T 52200 48000 5 8 0 0 0 0 1
footprint=TO92
T 52200 48100 5 10 0 0 0 0 1
symversion=1.0
}
C 53200 47100 1 0 0 BC557-1.sym
{
T 54200 47900 5 8 0 0 0 0 1
device=BC557
T 54200 47700 5 10 1 1 0 0 1
refdes=Q2
T 54200 47600 5 8 0 0 0 0 1
value=BC557
T 54200 48000 5 8 0 0 0 0 1
footprint=TO92
T 54200 48100 5 10 0 0 0 0 1
symversion=1.0
}
C 55200 47100 1 0 0 BC557-1.sym
{
T 56200 47900 5 8 0 0 0 0 1
device=BC557
T 56200 47700 5 10 1 1 0 0 1
refdes=Q3
T 56200 47600 5 8 0 0 0 0 1
value=BC557
T 56200 48000 5 8 0 0 0 0 1
footprint=TO92
T 56200 48100 5 10 0 0 0 0 1
symversion=1.0
}
N 48700 50100 48700 50800 4
N 48700 50800 55900 50800 4
N 49100 50100 49100 50500 4
N 49100 50500 53900 50500 4
N 49500 50100 49500 50200 4
N 49500 50200 51900 50200 4
C 44000 41300 1 0 0 74LS247.sym
{
T 44300 45040 5 10 0 0 0 0 1
device=74195
T 44300 44840 5 10 0 0 0 0 1
footprint=DIP16
T 44900 44300 5 10 1 1 0 0 1
refdes=U1
}
N 44100 42700 43900 42700 4
N 43900 42700 43900 41500 4
N 43700 41500 44100 41500 4
N 44100 41900 43900 41900 4
N 44100 42300 43900 42300 4
C 43900 41300 1 180 0 5V-plus-1.sym
C 46200 41000 1 0 0 gnd-1.sym
N 43700 41300 43700 41500 4
N 46100 41500 46300 41500 4
N 46300 41500 46300 41300 4
C 52100 46900 1 180 0 5V-plus-1.sym
N 51900 46900 51900 47100 4
C 54100 46900 1 180 0 5V-plus-1.sym
N 53900 46900 53900 47100 4
C 56100 46900 1 180 0 5V-plus-1.sym
N 55900 46900 55900 47100 4
N 51200 47700 51000 47700 4
C 50900 47100 1 270 0 resistor-1.sym
{
T 51300 46800 5 10 0 0 270 0 1
device=RESISTOR
T 51200 46800 5 10 1 1 0 0 1
refdes=R1
T 51200 46500 5 10 1 1 0 0 1
value=1k
T 50900 47100 5 10 0 0 0 0 1
footprint=0.125W_Carbon_Resistor
}
N 51000 47100 51000 47700 4
N 53200 47700 53000 47700 4
C 52900 47100 1 270 0 resistor-1.sym
{
T 53300 46800 5 10 0 0 270 0 1
device=RESISTOR
T 53200 46800 5 10 1 1 0 0 1
refdes=R2
T 53200 46500 5 10 1 1 0 0 1
value=1k
T 52900 47100 5 10 0 0 0 0 1
footprint=0.125W_Carbon_Resistor
}
N 53000 47100 53000 47700 4
N 55200 47700 55000 47700 4
C 54900 47100 1 270 0 resistor-1.sym
{
T 55300 46800 5 10 0 0 270 0 1
device=RESISTOR
T 55200 46800 5 10 1 1 0 0 1
refdes=R3
T 55200 46500 5 10 1 1 0 0 1
value=1k
T 54900 47100 5 10 0 0 0 0 1
footprint=0.125W_Carbon_Resistor
}
N 55000 47100 55000 47700 4
C 41000 42000 1 0 0 74595-1.sym
{
T 41300 44840 5 10 0 0 0 0 1
device=74595
T 42700 44700 5 10 1 1 0 6 1
refdes=U2
T 41300 45050 5 10 0 0 0 0 1
footprint=DIP16
T 41300 45450 5 10 0 0 0 0 1
net=+5V:16
T 41300 45650 5 10 0 0 0 0 1
net=GND:8
}
N 43900 43100 44100 43100 4
{
T 43700 43200 5 10 1 1 0 0 1
netname=QG
}
N 43000 44300 43200 44300 4
{
T 43000 44400 5 10 1 1 0 0 1
netname=QA
}
N 43000 43400 43200 43400 4
{
T 43000 43500 5 10 1 1 0 0 1
netname=QD
}
N 43000 44000 43200 44000 4
{
T 43000 44100 5 10 1 1 0 0 1
netname=QB
}
N 43000 43700 43200 43700 4
{
T 43000 43800 5 10 1 1 0 0 1
netname=QC
}
C 40500 43500 1 180 0 5V-plus-1.sym
N 41000 43700 40300 43700 4
N 40300 43700 40300 43500 4
C 40200 43800 1 0 0 gnd-1.sym
N 41000 44300 40300 44300 4
N 40300 44300 40300 44100 4
N 41000 43400 40800 43400 4
{
T 40900 43600 5 10 1 1 180 0 1
netname=PB0
}
N 41000 43100 40800 43100 4
{
T 40900 43300 5 10 1 1 180 0 1
netname=PB2
}
N 41000 44000 40800 44000 4
{
T 40900 44200 5 10 1 1 180 0 1
netname=PB1
}
N 43900 43500 44100 43500 4
{
T 43700 43600 5 10 1 1 0 0 1
netname=QH
}
N 43900 43900 44100 43900 4
{
T 43700 44000 5 10 1 1 0 0 1
netname=QA
}
N 43000 42500 43200 42500 4
{
T 43000 42600 5 10 1 1 0 0 1
netname=QG
}
N 43000 42200 43200 42200 4
{
T 43000 42300 5 10 1 1 0 0 1
netname=QH
}
N 43000 42800 43200 42800 4
{
T 43000 42900 5 10 1 1 0 0 1
netname=QF
}
N 43000 43100 43200 43100 4
{
T 43000 43200 5 10 1 1 0 0 1
netname=QE
}
N 43900 44300 44100 44300 4
{
T 43700 44400 5 10 1 1 0 0 1
netname=QF
}
N 51000 45500 51000 46200 4
{
T 51100 45900 5 10 1 1 270 0 1
netname=QE
}
N 53900 48300 53900 50500 4
N 55900 48300 55900 50800 4
N 46100 43900 46500 43900 4
N 46100 43500 46900 43500 4
N 46100 43100 47300 43100 4
N 46100 42700 47700 42700 4
N 46100 42300 48100 42300 4
N 46100 41900 48500 41900 4
N 53000 45500 53000 46200 4
{
T 53100 45900 5 10 1 1 270 0 1
netname=QD
}
N 55000 45500 55000 46200 4
{
T 55100 45900 5 10 1 1 270 0 1
netname=QC
}
C 46000 46200 1 270 0 resistor-1.sym
{
T 46400 45900 5 10 0 0 270 0 1
device=RESISTOR
T 46200 46500 5 10 1 1 270 0 1
refdes=R4
T 46200 45500 5 10 1 1 270 0 1
value=330R
T 46000 46200 5 10 0 0 0 0 1
footprint=0.125W_Carbon_Resistor
}
N 46100 46200 46100 46800 4
C 46400 46200 1 270 0 resistor-1.sym
{
T 46800 45900 5 10 0 0 270 0 1
device=RESISTOR
T 46600 46500 5 10 1 1 270 0 1
refdes=R5
T 46600 45500 5 10 1 1 270 0 1
value=330R
T 46400 46200 5 10 0 0 0 0 1
footprint=0.125W_Carbon_Resistor
}
C 46800 46200 1 270 0 resistor-1.sym
{
T 47200 45900 5 10 0 0 270 0 1
device=RESISTOR
T 46800 46200 5 10 0 0 0 0 1
footprint=0.125W_Carbon_Resistor
T 47000 46500 5 10 1 1 270 0 1
refdes=R6
T 47000 45500 5 10 1 1 270 0 1
value=330R
}
C 47200 46200 1 270 0 resistor-1.sym
{
T 47600 45900 5 10 0 0 270 0 1
device=RESISTOR
T 47200 46200 5 10 0 0 0 0 1
footprint=0.125W_Carbon_Resistor
T 47400 46500 5 10 1 1 270 0 1
refdes=R7
T 47400 45500 5 10 1 1 270 0 1
value=330R
}
C 47600 46200 1 270 0 resistor-1.sym
{
T 48000 45900 5 10 0 0 270 0 1
device=RESISTOR
T 47600 46200 5 10 0 0 0 0 1
footprint=0.125W_Carbon_Resistor
T 47800 46500 5 10 1 1 270 0 1
refdes=R8
T 47800 45500 5 10 1 1 270 0 1
value=330R
}
C 48000 46200 1 270 0 resistor-1.sym
{
T 48400 45900 5 10 0 0 270 0 1
device=RESISTOR
T 48000 46200 5 10 0 0 0 0 1
footprint=0.125W_Carbon_Resistor
T 48200 46500 5 10 1 1 270 0 1
refdes=R9
T 48200 45500 5 10 1 1 270 0 1
value=330R
}
C 48400 46200 1 270 0 resistor-1.sym
{
T 48800 45900 5 10 0 0 270 0 1
device=RESISTOR
T 48400 46200 5 10 0 0 0 0 1
footprint=0.125W_Carbon_Resistor
T 48600 46500 5 10 1 1 270 0 1
refdes=R10
T 48600 45500 5 10 1 1 270 0 1
value=330R
}
N 51900 48300 51900 50200 4
N 48500 46200 48500 46800 4
N 48100 46800 48100 46200 4
N 47700 46200 47700 46800 4
N 47300 46200 47300 46800 4
N 46900 46200 46900 46800 4
N 46500 46200 46500 46800 4
N 46100 44300 46100 45300 4
N 46500 43900 46500 45300 4
N 46900 45300 46900 43500 4
N 47300 43100 47300 45300 4
N 47700 42700 47700 45300 4
N 48100 42300 48100 45300 4
N 48500 41900 48500 45300 4
