v 20130925 2
C 40000 40000 0 0 0 title-B.sym
C 47000 43800 1 0 0 ATTINY24.sym
{
T 52500 46900 5 10 1 1 0 6 1
refdes=U3
T 47300 47100 5 10 0 0 0 0 1
device=ATtiny24/44/84
T 47300 47500 5 10 0 0 0 0 1
footprint=SO14
}
C 46600 46800 1 0 0 5V-plus-1.sym
C 53300 46500 1 90 0 gnd-1.sym
N 47000 46600 46800 46600 4
N 53000 46600 52800 46600 4
N 52800 46200 53000 46200 4
{
T 52900 46400 5 10 1 1 180 6 1
netname=M1
}
N 46800 46600 46800 46800 4
N 52800 45800 53000 45800 4
{
T 52900 46000 5 10 1 1 180 6 1
netname=M2
}
N 52800 45400 53000 45400 4
{
T 52900 45600 5 10 1 1 180 6 1
netname=M3
}
N 52800 45000 53000 45000 4
{
T 52900 45200 5 10 1 1 180 6 1
netname=M4
}
N 47000 46200 46800 46200 4
{
T 46900 46400 5 10 1 1 180 0 1
netname=PB0
}
N 47000 45800 46800 45800 4
{
T 46900 46000 5 10 1 1 180 0 1
netname=PB1
}
N 47000 45000 46800 45000 4
{
T 46900 45200 5 10 1 1 180 0 1
netname=PB2
}
N 47000 44200 46800 44200 4
{
T 46900 44400 5 10 1 1 180 0 1
netname=SDA
}
C 43900 46800 1 0 1 header6-2.sym
{
T 43600 48500 5 10 0 0 0 6 1
device=HEADER6
T 43900 46800 5 10 0 0 0 0 1
footprint=JMP-254P-254Sr-3N
T 43300 48100 5 10 1 1 0 6 1
refdes=J1
}
N 42500 47800 42000 47800 4
{
T 42000 47900 5 10 1 1 0 0 1
netname=MISO
}
N 42500 47000 42000 47000 4
{
T 41900 47100 5 10 1 1 0 0 1
netname=RESET
}
N 42000 47400 42500 47400 4
{
T 42000 47500 5 10 1 1 0 0 1
netname=SCL
}
N 44400 47400 43900 47400 4
{
T 44000 47500 5 10 1 1 0 0 1
netname=SDA
}
C 44000 46500 1 0 0 gnd-1.sym
N 43900 47000 44100 47000 4
N 44100 47000 44100 46800 4
N 52800 44600 53000 44600 4
{
T 52900 44800 5 10 1 1 180 6 1
netname=SCL
}
N 47000 45400 46500 45400 4
{
T 46400 45500 5 10 1 1 0 0 1
netname=RESET
}
N 52800 44200 53000 44200 4
{
T 52900 44400 5 10 1 1 180 6 1
netname=MISO
}
C 42600 41400 1 0 0 connector3-1.sym
{
T 44400 42300 5 10 0 0 0 0 1
device=CONNECTOR_3
T 42600 42500 5 10 1 1 0 0 1
refdes=DATA
T 42600 41400 5 10 0 0 0 0 1
footprint=JUMPER3
}
N 44300 42200 44500 42200 4
{
T 44400 42400 5 10 1 1 180 6 1
netname=SDA
}
N 44300 41900 44500 41900 4
{
T 44400 42100 5 10 1 1 180 6 1
netname=SCL
}
C 44400 41100 1 0 0 gnd-1.sym
N 44300 41600 44500 41600 4
N 44500 41600 44500 41400 4
C 42600 42900 1 0 0 connector2-1.sym
{
T 42800 43900 5 10 0 0 0 0 1
device=CONNECTOR_2
T 42600 43700 5 10 1 1 0 0 1
refdes=POWER
T 42600 42900 5 10 0 0 0 0 1
footprint=JUMPER2
}
C 44400 42600 1 0 0 gnd-1.sym
N 44300 43100 44500 43100 4
N 44500 43100 44500 42900 4
C 44700 43600 1 0 1 5V-plus-1.sym
N 44300 43400 44500 43400 4
N 44500 43400 44500 43600 4
