v 20130925 2
C 40000 40000 0 0 0 title-B.sym
C 44500 47900 1 0 0 7414-1.sym
{
T 44800 48900 5 10 0 0 0 0 1
device=7414
T 45300 48700 5 10 1 1 0 0 1
refdes=U4
T 44800 51300 5 10 0 0 0 0 1
footprint=DIP14
T 44500 47900 5 10 0 0 0 0 1
slot=1
T 44800 50700 5 10 0 0 0 0 1
net=+5V:14
T 44800 50900 5 10 0 0 0 0 1
net=GND:7
}
C 42800 47600 1 0 0 photo-transistor-1.sym
{
T 43160 47900 5 10 1 1 0 0 1
refdes=Q4
T 42760 47600 5 10 0 1 0 0 1
device=photo-transistor
T 43200 47700 5 10 1 1 0 0 1
value=TIL72
T 42800 47600 5 10 0 0 0 0 1
footprint=T1.75_LED
}
C 41800 48600 1 270 0 led-1.sym
{
T 42400 47800 5 10 0 0 270 0 1
device=LED
T 41200 48200 5 10 1 1 0 0 1
refdes=D2
T 42600 47800 5 10 0 0 270 0 1
symversion=0.1
T 41200 47900 5 10 1 1 0 0 1
value=TIL32
T 41800 48600 5 10 0 0 0 0 1
footprint=T1.75_LED
}
C 41900 49700 1 270 0 resistor-1.sym
{
T 42300 49400 5 10 0 0 270 0 1
device=RESISTOR
T 42200 49400 5 10 1 1 0 0 1
refdes=R12
T 42200 49200 5 10 1 1 0 0 1
value=330R
T 41900 49700 5 10 0 0 0 0 1
footprint=Resistor-V-4mm
}
C 42900 49700 1 270 0 resistor-1.sym
{
T 43300 49400 5 10 0 0 270 0 1
device=RESISTOR
T 43200 49400 5 10 1 1 0 0 1
refdes=R13
T 43200 49200 5 10 1 1 0 0 1
value=100k
T 42900 49700 5 10 0 0 0 0 1
footprint=Resistor-V-4mm
}
N 43000 48800 43000 48000 4
N 44500 48400 43000 48400 4
N 45700 48400 46200 48400 4
{
T 46000 48500 5 10 1 1 0 0 1
netname=M1
}
C 42400 46900 1 0 0 gnd-1.sym
N 43000 47600 43000 47400 4
N 43000 47400 42000 47400 4
N 42000 47400 42000 47700 4
N 42500 47200 42500 47400 4
N 42000 48800 42000 48600 4
N 42000 49700 42000 49900 4
N 42000 49900 43000 49900 4
N 43000 49900 43000 49700 4
N 42500 50100 42500 49900 4
C 42300 50100 1 0 0 5V-plus-1.sym
C 44500 43900 1 0 0 7414-1.sym
{
T 44800 44900 5 10 0 0 0 0 1
device=7414
T 44800 47300 5 10 0 0 0 0 1
footprint=DIP14
T 44500 43900 5 10 0 0 0 0 1
slot=2
T 44800 46700 5 10 0 0 0 0 1
net=+5V:14
T 44800 46900 5 10 0 0 0 0 1
net=GND:7
T 45300 44700 5 10 1 1 0 0 1
refdes=U4
}
C 42800 43600 1 0 0 photo-transistor-1.sym
{
T 42760 43600 5 10 0 1 0 0 1
device=photo-transistor
T 42800 43600 5 10 0 0 0 0 1
footprint=T1.75_LED
T 43160 43900 5 10 1 1 0 0 1
refdes=Q5
T 43200 43700 5 10 1 1 0 0 1
value=TIL72
}
C 41800 44600 1 270 0 led-1.sym
{
T 42400 43800 5 10 0 0 270 0 1
device=LED
T 42600 43800 5 10 0 0 270 0 1
symversion=0.1
T 41800 44600 5 10 0 0 0 0 1
footprint=T1.75_LED
T 41200 44200 5 10 1 1 0 0 1
refdes=D3
T 41200 43900 5 10 1 1 0 0 1
value=TIL32
}
C 41900 45700 1 270 0 resistor-1.sym
{
T 42300 45400 5 10 0 0 270 0 1
device=RESISTOR
T 41900 45700 5 10 0 0 0 0 1
footprint=Resistor-V-4mm
T 42200 45400 5 10 1 1 0 0 1
refdes=R14
T 42200 45200 5 10 1 1 0 0 1
value=330R
}
C 42900 45700 1 270 0 resistor-1.sym
{
T 43300 45400 5 10 0 0 270 0 1
device=RESISTOR
T 42900 45700 5 10 0 0 0 0 1
footprint=Resistor-V-4mm
T 43200 45400 5 10 1 1 0 0 1
refdes=R15
T 43200 45200 5 10 1 1 0 0 1
value=100k
}
N 43000 44800 43000 44000 4
N 44500 44400 43000 44400 4
N 45700 44400 46200 44400 4
{
T 46000 44500 5 10 1 1 0 0 1
netname=M2
}
C 42400 42900 1 0 0 gnd-1.sym
N 43000 43600 43000 43400 4
N 43000 43400 42000 43400 4
N 42000 43400 42000 43700 4
N 42500 43200 42500 43400 4
N 42000 44800 42000 44600 4
N 42000 45700 42000 45900 4
N 42000 45900 43000 45900 4
N 43000 45900 43000 45700 4
N 42500 46100 42500 45900 4
C 42300 46100 1 0 0 5V-plus-1.sym
C 52200 47900 1 0 0 7414-1.sym
{
T 52500 48900 5 10 0 0 0 0 1
device=7414
T 52500 51300 5 10 0 0 0 0 1
footprint=DIP14
T 52200 47900 5 10 0 0 0 0 1
slot=3
T 52500 50700 5 10 0 0 0 0 1
net=+5V:14
T 52500 50900 5 10 0 0 0 0 1
net=GND:7
T 53000 48700 5 10 1 1 0 0 1
refdes=U4
}
C 50500 47600 1 0 0 photo-transistor-1.sym
{
T 50460 47600 5 10 0 1 0 0 1
device=photo-transistor
T 50500 47600 5 10 0 0 0 0 1
footprint=T1.75_LED
T 50860 47900 5 10 1 1 0 0 1
refdes=Q6
T 50900 47700 5 10 1 1 0 0 1
value=TIL72
}
C 49500 48600 1 270 0 led-1.sym
{
T 50100 47800 5 10 0 0 270 0 1
device=LED
T 50300 47800 5 10 0 0 270 0 1
symversion=0.1
T 49500 48600 5 10 0 0 0 0 1
footprint=T1.75_LED
T 48900 48200 5 10 1 1 0 0 1
refdes=D4
T 48900 47900 5 10 1 1 0 0 1
value=TIL32
}
C 49600 49700 1 270 0 resistor-1.sym
{
T 50000 49400 5 10 0 0 270 0 1
device=RESISTOR
T 49600 49700 5 10 0 0 0 0 1
footprint=Resistor-V-4mm
T 49900 49400 5 10 1 1 0 0 1
refdes=R16
T 49900 49200 5 10 1 1 0 0 1
value=330R
}
C 50600 49700 1 270 0 resistor-1.sym
{
T 51000 49400 5 10 0 0 270 0 1
device=RESISTOR
T 50600 49700 5 10 0 0 0 0 1
footprint=Resistor-V-4mm
T 50900 49400 5 10 1 1 0 0 1
refdes=R17
T 50900 49200 5 10 1 1 0 0 1
value=100k
}
N 50700 48800 50700 48000 4
N 52200 48400 50700 48400 4
N 53400 48400 53900 48400 4
{
T 53700 48500 5 10 1 1 0 0 1
netname=M3
}
C 50100 46900 1 0 0 gnd-1.sym
N 50700 47600 50700 47400 4
N 50700 47400 49700 47400 4
N 49700 47400 49700 47700 4
N 50200 47200 50200 47400 4
N 49700 48800 49700 48600 4
N 49700 49700 49700 49900 4
N 49700 49900 50700 49900 4
N 50700 49900 50700 49700 4
N 50200 50100 50200 49900 4
C 50000 50100 1 0 0 5V-plus-1.sym
C 52200 43900 1 0 0 7414-1.sym
{
T 52500 44900 5 10 0 0 0 0 1
device=7414
T 52500 47300 5 10 0 0 0 0 1
footprint=DIP14
T 52200 43900 5 10 0 0 0 0 1
slot=4
T 52500 46700 5 10 0 0 0 0 1
net=+5V:14
T 52500 46900 5 10 0 0 0 0 1
net=GND:7
T 53000 44700 5 10 1 1 0 0 1
refdes=U4
}
C 50500 43600 1 0 0 photo-transistor-1.sym
{
T 50460 43600 5 10 0 1 0 0 1
device=photo-transistor
T 50500 43600 5 10 0 0 0 0 1
footprint=T1.75_LED
T 50860 43900 5 10 1 1 0 0 1
refdes=Q7
T 50900 43700 5 10 1 1 0 0 1
value=TIL72
}
C 49500 44600 1 270 0 led-1.sym
{
T 50100 43800 5 10 0 0 270 0 1
device=LED
T 50300 43800 5 10 0 0 270 0 1
symversion=0.1
T 49500 44600 5 10 0 0 0 0 1
footprint=T1.75_LED
T 48900 44200 5 10 1 1 0 0 1
refdes=D5
T 48900 43900 5 10 1 1 0 0 1
value=TIL32
}
C 49600 45700 1 270 0 resistor-1.sym
{
T 50000 45400 5 10 0 0 270 0 1
device=RESISTOR
T 49600 45700 5 10 0 0 0 0 1
footprint=Resistor-V-4mm
T 49900 45400 5 10 1 1 0 0 1
refdes=R18
T 49900 45200 5 10 1 1 0 0 1
value=330R
}
C 50600 45700 1 270 0 resistor-1.sym
{
T 51000 45400 5 10 0 0 270 0 1
device=RESISTOR
T 50600 45700 5 10 0 0 0 0 1
footprint=Resistor-V-4mm
T 50900 45400 5 10 1 1 0 0 1
refdes=R19
T 50900 45200 5 10 1 1 0 0 1
value=100k
}
N 50700 44800 50700 44000 4
N 52200 44400 50700 44400 4
N 53400 44400 53900 44400 4
{
T 53700 44500 5 10 1 1 0 0 1
netname=M4
}
C 50100 42900 1 0 0 gnd-1.sym
N 50700 43600 50700 43400 4
N 50700 43400 49700 43400 4
N 49700 43400 49700 43700 4
N 50200 43200 50200 43400 4
N 49700 44800 49700 44600 4
N 49700 45700 49700 45900 4
N 49700 45900 50700 45900 4
N 50700 45900 50700 45700 4
N 50200 46100 50200 45900 4
C 50000 46100 1 0 0 5V-plus-1.sym
