v 20130925 2
C 40000 40000 0 0 0 title-B.sym
T 54000 40200 9 10 1 0 0 0 1
José Roberto Colombo Junior
T 52500 40900 9 10 1 0 0 0 1
PLL - Encoder
C 48800 44700 1 90 0 capacitor-1.sym
{
T 48100 44900 5 10 0 0 90 0 1
device=CAPACITOR
T 47900 44900 5 10 0 0 90 0 1
symversion=0.1
T 48800 44700 5 10 0 1 90 0 1
footprint=1206
T 48800 45300 5 10 1 1 0 0 1
refdes=C2
T 48800 44900 5 10 1 1 0 0 1
value=100nF
}
N 48600 44500 48600 44700 4
N 48600 45600 48600 46000 4
C 46400 44000 1 0 0 gnd-1.sym
N 46500 44300 46500 45200 4
N 46500 44500 50900 44500 4
C 45700 45200 1 0 0 lm7805-1.sym
{
T 47300 46500 5 10 0 0 0 0 1
device=7805
T 45700 45200 5 10 0 0 0 0 1
footprint=TO220W
T 47100 46200 5 10 1 1 0 6 1
refdes=U6
}
C 48400 46000 1 0 0 5V-plus-1.sym
N 47300 45800 48600 45800 4
C 43700 46100 1 0 0 vcc-1.sym
C 45500 50000 1 180 0 diode-3.sym
{
T 45050 49450 5 10 0 0 180 0 1
device=DIODE
T 44650 50050 5 10 1 1 0 0 1
refdes=D1
T 45600 50200 5 10 1 1 180 0 1
value=1N4004
T 45500 50000 5 10 0 0 270 0 1
footprint=diode-vert
}
C 41700 45300 1 0 0 connector2-1.sym
{
T 41900 46300 5 10 0 0 0 0 1
device=CONNECTOR_2
T 41700 46100 5 10 1 1 0 0 1
refdes=BAT
T 41700 45300 5 10 0 0 0 0 1
footprint=JUMPER2
}
N 43900 46100 43900 45800 4
N 43700 45500 43700 44500 4
N 43700 44500 46500 44500 4
N 43400 45500 43700 45500 4
C 45500 49200 1 180 0 diode-3.sym
{
T 45050 48650 5 10 0 0 180 0 1
device=DIODE
T 44650 49250 5 10 1 1 0 0 1
refdes=D2
T 45600 49400 5 10 1 1 180 0 1
value=1N4004
T 45500 49200 5 10 0 0 270 0 1
footprint=diode-vert
}
C 45500 48400 1 180 0 diode-3.sym
{
T 45050 47850 5 10 0 0 180 0 1
device=DIODE
T 44650 48450 5 10 1 1 0 0 1
refdes=D3
T 45600 48600 5 10 1 1 180 0 1
value=1N4004
T 45500 48400 5 10 0 0 270 0 1
footprint=diode-vert
}
C 45500 47600 1 180 0 diode-3.sym
{
T 45050 47050 5 10 0 0 180 0 1
device=DIODE
T 44650 47650 5 10 1 1 0 0 1
refdes=D4
T 45600 47800 5 10 1 1 180 0 1
value=1N4004
T 45500 47600 5 10 0 0 270 0 1
footprint=diode-vert
}
C 45500 46800 1 180 0 diode-3.sym
{
T 45050 46250 5 10 0 0 180 0 1
device=DIODE
T 44650 46850 5 10 1 1 0 0 1
refdes=D5
T 45600 47000 5 10 1 1 180 0 1
value=1N4004
T 45500 46800 5 10 0 0 270 0 1
footprint=diode-vert
}
C 45500 46000 1 180 0 diode-3.sym
{
T 45050 45450 5 10 0 0 180 0 1
device=DIODE
T 44650 46050 5 10 1 1 0 0 1
refdes=D6
T 45600 46200 5 10 1 1 180 0 1
value=1N4004
T 45500 46000 5 10 0 0 270 0 1
footprint=diode-vert
}
N 43400 45800 44200 45800 4
N 44600 49800 44200 49800 4
N 44200 49800 44200 45800 4
N 45500 49800 45700 49800 4
N 45700 49800 45700 49500 4
N 45700 49500 44400 49500 4
N 44400 49500 44400 49000 4
N 44400 49000 44600 49000 4
N 45500 49000 45700 49000 4
N 45700 49000 45700 48700 4
N 45700 48700 44400 48700 4
N 44400 48700 44400 48200 4
N 44400 48200 44600 48200 4
N 45500 48200 45700 48200 4
N 45700 48200 45700 47900 4
N 45700 47900 44400 47900 4
N 44400 47900 44400 47400 4
N 44400 47400 44600 47400 4
N 45700 47400 45700 47100 4
N 45700 47100 44400 47100 4
N 44400 47100 44400 46600 4
N 44400 46600 44600 46600 4
N 45500 46600 45700 46600 4
N 45700 46600 45700 46300 4
N 45700 46300 44400 46300 4
N 44400 46300 44400 45800 4
N 44400 45800 44600 45800 4
N 45500 47400 45700 47400 4
N 45700 45800 45500 45800 4
C 49400 45600 1 270 0 capacitor-2.sym
{
T 50100 45400 5 10 0 0 270 0 1
device=POLARIZED_CAPACITOR
T 50300 45400 5 10 0 0 270 0 1
symversion=0.1
T 49400 45600 5 10 0 0 0 0 1
footprint=CAPPR-318P-760D__Kemet_Ultradip-II-T355-H
T 50200 45400 5 10 1 1 180 0 1
refdes=C1
T 50400 45100 5 10 1 1 180 0 1
value=100uF
}
N 48600 45800 50900 45800 4
N 49600 45800 49600 45600 4
N 49600 44500 49600 44700 4
C 52800 44900 1 0 1 connector2-1.sym
{
T 52600 45900 5 10 0 0 0 6 1
device=CONNECTOR_2
T 52800 45700 5 10 1 1 0 6 1
refdes=VCC_BB
T 52800 44900 5 10 0 0 0 6 1
footprint=JUMPER2
}
N 50900 45800 50900 45400 4
N 50900 45400 51100 45400 4
N 50900 44500 50900 45100 4
N 50900 45100 51100 45100 4
