v 20130925 2
C 40000 40000 0 0 0 title-B.sym
T 54000 40200 9 10 1 0 0 0 1
José Roberto Colombo Junior
C 42000 38700 1 0 0 beaglebone_rev_A6.sym
{
T 46200 48550 5 10 0 0 0 0 1
device=BEAGLEBOND REV A6
T 46200 48750 5 10 0 0 0 0 1
footprint=beaglebone_arrumado
T 50400 57700 5 10 1 1 0 6 1
refdes=U11
}
N 42100 50000 41300 50000 4
{
T 41000 50100 5 10 1 1 0 0 1
netname=SCL
}
N 42100 49600 41300 49600 4
{
T 41000 49700 5 10 1 1 0 0 1
netname=SDA
}
N 42100 52000 41300 52000 4
{
T 41000 52100 5 10 1 1 0 0 1
netname=PWM1
}
N 42100 46400 41300 46400 4
{
T 41000 46500 5 10 1 1 0 0 1
netname=PWM2
}
N 50700 52400 51500 52400 4
{
T 51800 52500 5 10 1 1 0 6 1
netname=PWM3
}
N 42100 40800 41300 40800 4
{
T 41000 40900 5 10 1 1 0 0 1
netname=PWM4
}
N 50700 42400 51500 42400 4
{
T 51800 42500 5 10 1 1 0 6 1
netname=RX
}
N 50700 42800 51500 42800 4
{
T 51800 42900 5 10 1 1 0 6 1
netname=TX
}
C 41800 55800 1 90 0 3.3V-plus-1.sym
C 41800 56200 1 90 0 3.3V-plus-1.sym
N 41800 56400 42100 56400 4
N 42100 56000 41800 56000 4
C 41500 56900 1 270 0 gnd-1.sym
C 41500 57300 1 270 0 gnd-1.sym
N 42100 57200 41800 57200 4
N 41800 56800 42100 56800 4
C 51400 57100 1 90 0 gnd-1.sym
C 51400 56700 1 90 0 gnd-1.sym
N 50700 57200 51100 57200 4
N 51100 56800 50700 56800 4
C 41300 40500 1 270 0 gnd-1.sym
C 41300 40100 1 270 0 gnd-1.sym
C 41300 39700 1 270 0 gnd-1.sym
C 41300 39300 1 270 0 gnd-1.sym
N 41600 40400 42100 40400 4
N 42100 40000 41600 40000 4
N 41600 39600 42100 39600 4
N 42100 39200 41600 39200 4
N 42100 41600 41400 41600 4
{
T 41300 41700 5 10 1 1 0 0 1
netname=Vbat
}
N 50700 55600 51500 55600 4
{
T 51800 55700 5 10 1 1 0 6 1
netname=GPIO_1
}
N 50700 56400 51500 56400 4
{
T 51800 56500 5 10 1 1 0 6 1
netname=GPIO_2
}
C 44700 58800 1 180 0 gnd-1.sym
N 44600 58200 44600 58500 4
C 42400 60300 1 180 0 gnd-1.sym
N 42300 59700 42300 60000 4
C 45500 58800 1 180 0 gnd-1.sym
N 45400 58200 45400 58500 4
N 50700 43600 51500 43600 4
{
T 51800 43700 5 10 1 1 0 6 1
netname=RX
}
N 50700 44800 51500 44800 4
{
T 51800 44900 5 10 1 1 0 6 1
netname=RTS
}
N 50700 45200 51500 45200 4
{
T 51800 45300 5 10 1 1 0 6 1
netname=CTS
}
N 50700 44400 51500 44400 4
{
T 51800 44500 5 10 1 1 0 6 1
netname=RTS
}
N 42100 48800 41300 48800 4
{
T 41000 48900 5 10 1 1 0 0 1
netname=SCL
}
