v 20130925 2
C 40000 40000 0 0 0 title-B.sym
T 54000 40200 9 10 1 0 0 0 1
José Roberto Colombo Junior
T 52500 40900 9 10 1 0 0 0 1
PLL - Encoder
C 44800 44000 1 0 0 BMA180.sym
{
T 45200 49750 5 10 0 0 0 0 1
device=BMA180
T 45200 49550 5 10 0 0 0 0 1
footprint=BMA180
T 45200 50000 5 10 0 0 0 0 1
symversion=1.0
T 47100 47700 5 10 1 1 0 6 1
refdes=U21
}
C 48000 43700 1 0 0 gnd-1.sym
N 47400 44200 47600 44200 4
N 47600 44200 47600 44000 4
N 47400 44800 48100 44800 4
N 48100 44800 48100 44000 4
N 47400 45400 48100 45400 4
{
T 47800 45500 5 10 1 1 0 0 1
netname=SCL
}
N 47400 46000 48100 46000 4
{
T 47800 46100 5 10 1 1 0 0 1
netname=SDA
}
C 47800 44000 1 180 0 3.3V-plus-1.sym
