v 20130925 2
C 40000 40000 0 0 0 title-B.sym
T 54000 40200 9 10 1 0 0 0 1
José Roberto Colombo Junior
T 52500 40900 9 10 1 0 0 0 1
PLL - Encoder
C 48000 47300 1 0 0 gnd-1.sym
N 47400 44800 47600 44800 4
N 47600 44800 47600 44600 4
N 47400 47800 48100 47800 4
N 48100 47800 48100 47600 4
N 47400 46000 48100 46000 4
{
T 47800 46100 5 10 1 1 0 0 1
netname=SCL
}
N 47400 45400 48100 45400 4
{
T 47800 45500 5 10 1 1 0 0 1
netname=SDA
}
C 44800 44600 1 0 0 BMP085.sym
{
T 45200 50350 5 10 0 0 0 0 1
device=BMP085
T 47100 48300 5 10 1 1 0 6 1
refdes=U31
T 45200 50150 5 10 0 0 0 0 1
footprint=BMP085
T 45200 50600 5 10 0 0 0 0 1
symversion=1.0
}
C 47800 44600 1 180 0 3.3V-plus-1.sym
