v 20130925 2
C 40000 40000 0 0 0 title-B.sym
C 46300 43100 1 0 0 IRF530.sym
{
T 46600 45500 5 8 0 0 0 0 1
device=IRF530
T 47000 43700 5 10 1 1 0 0 1
refdes=Q71
T 47000 43500 5 10 1 1 0 0 1
value=IRF530
T 47000 43300 5 8 0 1 0 0 1
footprint=TO220
}
C 42500 41100 1 0 0 gnd-1.sym
C 46600 45100 1 0 0 vcc-1.sym
N 46800 43900 46800 45100 4
C 47000 42900 1 0 0 inductor-1.sym
{
T 47200 43400 5 10 0 0 0 0 1
device=INDUCTOR
T 47000 42700 5 10 1 1 0 0 1
refdes=L71
T 47200 43600 5 10 0 0 0 0 1
symversion=0.1
T 47500 42700 5 10 1 1 0 0 1
value=10mH
T 47000 42900 5 10 0 0 0 0 1
footprint=indutor
}
N 46800 43000 47000 43000 4
N 47900 43000 48400 43000 4
C 48200 42800 1 270 0 capacitor-2.sym
{
T 48900 42600 5 10 0 0 270 0 1
device=POLARIZED_CAPACITOR
T 48700 42400 5 10 1 1 0 0 1
refdes=C71
T 49100 42600 5 10 0 0 270 0 1
symversion=0.1
T 48200 42800 5 10 0 0 0 0 1
footprint=CAPPR-318P-760D__Kemet_Ultradip-II-T355-H
T 48700 42100 5 10 1 1 0 0 1
value=1000uF
}
N 48400 42800 48400 43200 4
N 48400 41900 48400 41700 4
C 46700 41200 1 0 0 gnd-1.sym
N 46800 41700 48400 41700 4
C 42800 42100 1 0 0 4N25-1.sym
{
T 43700 44100 5 10 0 0 0 0 1
device=4N25
T 44600 43900 5 10 1 1 0 6 1
refdes=U71
T 42800 42100 5 10 0 0 0 0 1
footprint=DIP6
}
N 46800 42800 46800 43100 4
N 46800 41900 46800 41500 4
N 42800 42400 42600 42400 4
N 42600 42400 42600 41400 4
C 45500 44400 1 270 0 resistor-1.sym
{
T 45900 44100 5 10 0 0 270 0 1
device=RESISTOR
T 45800 44100 5 10 1 1 0 0 1
refdes=R71
T 45800 43800 5 10 1 1 0 0 1
value=1k
T 45500 44400 5 10 0 0 0 0 1
footprint=1206
}
N 45600 44400 45600 44600 4
N 45600 44600 46800 44600 4
N 42600 41700 45100 41700 4
N 45100 41700 45100 42400 4
N 45100 42400 44900 42400 4
N 44900 43300 46300 43300 4
N 45600 43500 45600 43300 4
C 43800 46000 1 0 0 ATTINY24.sym
{
T 49300 49100 5 10 1 1 0 6 1
refdes=U72
T 44100 49300 5 10 0 0 0 0 1
device=ATtiny24/44/84
T 44100 49700 5 10 0 0 0 0 1
footprint=SO14
}
C 48200 43200 1 0 0 5V-plus-1.sym
N 47200 49900 49800 49900 4
N 49800 49900 49800 48800 4
N 49800 48800 49600 48800 4
N 43400 49900 46400 49900 4
N 43600 49900 43600 48800 4
N 43600 48800 43800 48800 4
C 42500 49800 1 0 0 resistor-1.sym
{
T 42800 50200 5 10 0 0 0 0 1
device=RESISTOR
T 42800 50300 5 10 1 1 180 0 1
refdes=R72
T 43400 50300 5 10 1 1 180 0 1
value=220R
T 42500 49800 5 10 0 0 0 0 1
footprint=1206
}
C 41800 50300 1 0 0 vcc-1.sym
N 42000 50300 42000 49900 4
N 42000 49900 42500 49900 4
N 42400 43300 42800 43300 4
{
T 42400 43300 5 10 0 1 0 0 1
netname=OPTO_LED
}
C 50100 44400 1 270 0 resistor-1.sym
{
T 50500 44100 5 10 0 0 270 0 1
device=RESISTOR
T 50400 44100 5 10 1 1 0 0 1
refdes=R73
T 50400 43800 5 10 1 1 0 0 1
value=4k7
T 50100 44400 5 10 0 0 0 0 1
footprint=1206
}
C 50100 43300 1 270 0 resistor-1.sym
{
T 50500 43000 5 10 0 0 270 0 1
device=RESISTOR
T 50400 43000 5 10 1 1 0 0 1
refdes=R74
T 50400 42700 5 10 1 1 0 0 1
value=1k
T 50100 43300 5 10 0 0 0 0 1
footprint=1206
}
C 50100 41900 1 0 0 gnd-1.sym
N 48400 43000 49500 43000 4
N 49500 43000 49500 44800 4
N 49500 44800 50200 44800 4
N 50200 44800 50200 44400 4
N 50200 43500 50200 43300 4
N 50200 42400 50200 42200 4
N 50200 43400 51600 43400 4
{
T 51100 43500 5 10 1 1 0 0 1
netname=FEEDBACK
}
C 55300 48600 1 0 1 header6-2.sym
{
T 55000 50300 5 10 0 0 0 6 1
device=HEADER6
T 55300 48600 5 10 0 0 0 0 1
footprint=JMP-254P-254Sr-3N
T 54300 50000 5 10 1 1 180 6 1
refdes=AVR_ISP
}
N 53900 49600 53400 49600 4
{
T 53400 49700 5 10 1 1 0 0 1
netname=MISO
}
N 53900 48800 53400 48800 4
{
T 53300 48900 5 10 1 1 0 0 1
netname=RESET
}
N 53400 49200 53900 49200 4
{
T 53400 49300 5 10 1 1 0 0 1
netname=SCK
}
N 55800 49200 55300 49200 4
{
T 55400 49300 5 10 1 1 0 0 1
netname=MOSI
}
C 55400 48300 1 0 0 gnd-1.sym
N 55300 48800 55500 48800 4
N 55500 48800 55500 48600 4
N 50100 46400 49600 46400 4
{
T 49800 46500 5 10 1 1 0 0 1
netname=MISO
}
N 49600 46800 50100 46800 4
{
T 49800 46900 5 10 1 1 0 0 1
netname=SCK
}
N 43800 47600 43300 47600 4
{
T 43000 47700 5 10 1 1 0 0 1
netname=RESET
}
N 42400 46400 43800 46400 4
{
T 43100 46500 5 10 1 1 0 0 1
netname=MOSI
}
C 50500 48600 1 0 0 gnd-1.sym
N 50600 48900 50600 49200 4
N 50600 49200 49800 49200 4
C 50800 43300 1 270 0 capacitor-1.sym
{
T 51500 43100 5 10 0 0 270 0 1
device=CAPACITOR
T 51300 42800 5 10 1 1 0 0 1
refdes=C72
T 51700 43100 5 10 0 0 270 0 1
symversion=0.1
T 51300 42500 5 10 1 1 0 0 1
netname=100nF
T 50800 43300 5 10 0 0 0 0 1
footprint=1206
}
N 50200 42300 51000 42300 4
N 51000 42300 51000 42400 4
C 52500 46100 1 0 0 connector2-1.sym
{
T 52700 47100 5 10 0 0 0 0 1
device=CONNECTOR_2
T 52500 46900 5 10 1 1 0 0 1
refdes=RAB
T 52500 46100 5 10 0 0 0 0 1
footprint=JUMPER2
}
C 54400 45800 1 0 0 gnd-1.sym
C 54300 46800 1 0 0 5V-plus-1.sym
N 54200 46600 54500 46600 4
N 54500 46600 54500 46800 4
N 54200 46300 54500 46300 4
N 54500 46300 54500 46100 4
C 52500 44600 1 0 0 connector2-1.sym
{
T 52700 45600 5 10 0 0 0 0 1
device=CONNECTOR_2
T 52500 44600 5 10 0 0 0 0 1
footprint=JUMPER2
T 52500 45400 5 10 1 1 0 0 1
refdes=BAT
}
C 54400 44300 1 0 0 gnd-1.sym
N 54200 45100 54500 45100 4
N 54500 45100 54500 45300 4
N 54200 44800 54500 44800 4
N 54500 44800 54500 44600 4
C 54300 45300 1 0 0 vcc-1.sym
N 51000 43300 51000 43400 4
N 49600 48400 51000 48400 4
{
T 50900 48500 5 10 1 1 0 0 1
netname=FEEDBACK
}
N 50100 48000 49600 48000 4
{
T 49800 48100 5 10 1 1 0 0 1
netname=RESET
}
C 46600 42800 1 270 0 diode-3.sym
{
T 47150 42350 5 10 0 0 270 0 1
device=DIODE
T 47050 42350 5 10 1 1 0 0 1
refdes=D71
T 46600 42800 5 10 0 0 0 0 1
footprint=ALF300
T 47700 42300 5 10 1 1 180 0 1
value=1N5819
}
C 46400 49800 1 0 0 zener-3.sym
{
T 45800 51200 5 10 0 0 0 0 1
device=ZENER_DIODE
T 46500 50050 5 10 1 1 0 0 1
refdes=Z71
T 46500 49600 5 10 1 1 0 0 1
value=1N4733
T 46400 49800 5 10 0 1 0 0 1
footprint=ALF300
}
C 42300 45400 1 270 0 resistor-1.sym
{
T 42700 45100 5 10 0 0 270 0 1
device=RESISTOR
T 42600 45100 5 10 1 1 0 0 1
refdes=R75
T 42600 44800 5 10 1 1 0 0 1
value=150R
T 42300 45400 5 10 0 0 0 0 1
footprint=1206
}
N 42400 45400 42400 46400 4
N 42400 43300 42400 44500 4
