v 20130925 2
C 40000 40000 0 0 0 title-B.sym
T 54000 40200 9 10 1 0 0 0 1
José Roberto Colombo Junior
T 52500 40900 9 10 1 0 0 0 1
PLL - Encoder
C 45000 44500 1 0 0 GY85.sym
{
T 45400 50250 5 10 0 0 0 0 1
device=GY-85
T 45400 50050 5 10 0 0 0 0 1
footprint=GY-85
T 45400 50500 5 10 0 0 0 0 1
symversion=1.0
T 47200 48600 5 10 1 1 0 6 1
refdes=U41
}
C 47700 45300 1 0 0 gnd-1.sym
N 47600 44700 47900 44700 4
N 47900 44700 47900 44500 4
N 47600 45700 47800 45700 4
N 47800 45700 47800 45600 4
N 47600 46700 48400 46700 4
{
T 48100 46800 5 10 1 1 0 0 1
netname=SDA
}
N 47600 46200 48400 46200 4
{
T 48100 46300 5 10 1 1 0 0 1
netname=SCL
}
C 48100 44500 1 180 0 3.3V-plus-1.sym
