v 20130925 2
C 40000 40000 0 0 0 title-B.sym
T 54000 40200 9 10 1 0 0 0 1
José Roberto Colombo Junior
T 52500 40900 9 10 1 0 0 0 1
PLL - Encoder
C 48000 43700 1 0 0 gnd-1.sym
N 47400 44800 48100 44800 4
N 48100 44800 48100 44000 4
C 45700 44600 1 0 0 connector4-1.sym
{
T 47500 45500 5 10 0 0 0 0 1
device=CONNECTOR_4
T 45600 46000 5 10 1 1 0 0 1
refdes=SONAR
T 45700 44600 5 10 0 0 0 0 1
footprint=JUMPER4
}
C 47400 46200 1 0 0 5V-plus-1.sym
N 47400 45700 47600 45700 4
N 47600 45700 47600 46200 4
N 48500 45400 49900 45400 4
{
T 49600 45500 5 10 1 1 0 0 1
netname=GPIO_1
}
N 48500 45100 49900 45100 4
{
T 49600 45200 5 10 1 1 0 0 1
netname=GPIO_2
}
C 47600 45300 1 0 0 resistor-1.sym
{
T 47900 45700 5 10 0 0 0 0 1
device=RESISTOR
T 48000 45700 5 10 1 1 180 0 1
refdes=R1
T 48500 45700 5 10 1 1 180 0 1
value=1k
T 47600 45300 5 10 0 0 90 0 1
footprint=0.125W_Carbon_Resistor
}
N 47400 45400 47600 45400 4
C 47600 45000 1 0 0 resistor-1.sym
{
T 47900 45400 5 10 0 0 0 0 1
device=RESISTOR
T 48000 45000 5 10 1 1 180 0 1
refdes=R2
T 48500 45000 5 10 1 1 180 0 1
value=1k
T 47600 45000 5 10 0 0 90 0 1
footprint=0.125W_Carbon_Resistor
}
N 47600 45100 47400 45100 4
