v 20130925 2
C 40000 40000 0 0 0 title-B.sym
T 54000 40200 9 10 1 0 0 0 1
José Roberto Colombo Junior
T 52500 40900 9 10 1 0 0 0 1
PLL - Encoder
C 49100 48000 1 0 0 gnd-1.sym
N 49000 48500 49200 48500 4
N 49200 48500 49200 48300 4
N 49000 49100 49900 49100 4
{
T 49600 49200 5 10 1 1 0 0 1
netname=PWM1
}
C 49100 46400 1 0 0 gnd-1.sym
N 49000 46900 49200 46900 4
N 49200 46900 49200 46700 4
C 47300 46700 1 0 0 connector3-1.sym
{
T 49100 47600 5 10 0 0 0 0 1
device=CONNECTOR_3
T 47300 47800 5 10 1 1 0 0 1
refdes=PWM2
T 47300 46700 5 10 0 0 0 0 1
footprint=JUMPER3
}
N 49000 47500 49900 47500 4
{
T 49600 47600 5 10 1 1 0 0 1
netname=PWM2
}
C 49100 44600 1 0 0 gnd-1.sym
N 49000 45100 49200 45100 4
N 49200 45100 49200 44900 4
N 49000 45700 49900 45700 4
{
T 49600 45800 5 10 1 1 0 0 1
netname=PWM3
}
C 49100 42800 1 0 0 gnd-1.sym
N 49000 43300 49200 43300 4
N 49200 43300 49200 43100 4
N 49000 43900 49900 43900 4
{
T 49600 44000 5 10 1 1 0 0 1
netname=PWM4
}
C 47300 44900 1 0 0 connector3-1.sym
{
T 49100 45800 5 10 0 0 0 0 1
device=CONNECTOR_3
T 47300 46000 5 10 1 1 0 0 1
refdes=PWM3
T 47300 44900 5 10 0 0 0 0 1
footprint=JUMPER3
}
C 47300 43100 1 0 0 connector3-1.sym
{
T 49100 44000 5 10 0 0 0 0 1
device=CONNECTOR_3
T 47300 44200 5 10 1 1 0 0 1
refdes=PWM4
T 47300 43100 5 10 0 0 0 0 1
footprint=JUMPER3
}
C 47300 48300 1 0 0 connector3-1.sym
{
T 49100 49200 5 10 0 0 0 0 1
device=CONNECTOR_3
T 47300 49400 5 10 1 1 0 0 1
refdes=PWM1
T 47300 48300 5 10 0 0 0 0 1
footprint=JUMPER3
}
