v 20121123 2
C 40000 40000 0 0 0 title-B.sym
T 54000 40200 9 10 1 0 0 0 1
José Roberto Colombo Junior
T 52500 40900 9 10 1 0 0 0 1
PLL - Encoder
C 48500 47100 1 90 1 resistor-1.sym
{
T 48100 46800 5 10 0 0 270 2 1
device=RESISTOR
T 48200 46700 5 10 1 1 0 6 1
refdes=R1
T 48200 46400 5 10 1 1 0 6 1
value=39k
T 48500 47100 5 10 0 0 0 6 1
footprint=1206
}
C 49000 45900 1 270 0 capacitor-1.sym
{
T 49700 45700 5 10 0 0 270 0 1
device=CAPACITOR
T 49300 45600 5 10 1 1 0 0 1
refdes=C1
T 49900 45700 5 10 0 0 270 0 1
symversion=0.1
T 49300 45200 5 10 1 1 0 0 1
value=100nF
T 49000 45900 5 10 0 0 0 0 1
footprint=1206
}
C 48500 46000 1 90 1 resistor-1.sym
{
T 48100 45700 5 10 0 0 270 2 1
device=RESISTOR
T 48200 45600 5 10 1 1 0 6 1
refdes=R2
T 48200 45300 5 10 1 1 0 6 1
value=5k6
T 48500 46000 5 10 0 0 0 6 1
footprint=1206
}
C 48300 44400 1 0 0 gnd-1.sym
C 48200 47300 1 0 0 vcc-1.sym
N 48400 47300 48400 47100 4
N 48400 46200 48400 46000 4
N 48400 44700 48400 45100 4
N 48400 46100 49900 46100 4
{
T 49700 46200 5 10 1 1 0 0 1
netname=Vbat
}
N 49200 46100 49200 45900 4
N 49200 45000 49200 44900 4
N 49200 44900 48400 44900 4
