v 20130925 2
C 40000 40000 0 0 0 title-B.sym
T 54000 40200 9 10 1 0 0 0 1
José Roberto Colombo Junior
T 52500 40900 9 10 1 0 0 0 1
PLL - Encoder
C 47200 44100 1 0 0 xbee.sym
{
T 50495 48200 5 10 1 1 0 0 1
refdes=U61
T 47200 44100 5 10 0 0 0 0 1
footprint=MOD__MaxStream_XBee_PRO
}
C 47000 43800 1 0 0 gnd-1.sym
N 47300 44300 47100 44300 4
N 47100 44300 47100 44100 4
C 46800 48100 1 0 0 3.3V-plus-1.sym
N 47300 47900 47000 47900 4
N 47000 47900 47000 48100 4
N 46700 47500 47300 47500 4
{
T 46600 47600 5 10 1 1 180 0 1
netname=RX
}
N 47300 47100 46700 47100 4
{
T 46600 47200 5 10 1 1 180 0 1
netname=TX
}
N 51600 44700 51000 44700 4
{
T 51600 44900 5 10 1 1 180 0 1
netname=CTS
}
N 51600 46300 51000 46300 4
{
T 51600 46500 5 10 1 1 180 0 1
netname=RTS
}
